current directory: /Users/fx/chat/vender/bundler/ruby/2.5.0/gems/nokogiri-1.8.2/ext/nokogiri
/Users/fx/.rbenv/versions/2.5.0/bin/ruby -r ./siteconf20180509-43570-2xyejs.rb extconf.rb
checking if the C compiler accepts ... yes
checking if the C compiler accepts -Wno-error=unused-command-line-argument-hard-error-in-future... no
Building nokogiri using packaged libraries.
Using mini_portile version 2.3.0
checking for iconv.h... yes
checking for gzdopen() in -lz... yes
checking for iconv... yes
************************************************************************
IMPORTANT NOTICE:

Building Nokogiri with a packaged version of libxml2-2.9.7.

Team Nokogiri will keep on doing their best to provide security
updates in a timely manner, but if this is a concern for you and want
to use the system library instead; abort this installation process and
reinstall nokogiri as follows:

    gem install nokogiri -- --use-system-libraries
        [--with-xml2-config=/path/to/xml2-config]
        [--with-xslt-config=/path/to/xslt-config]

If you are using Bundler, tell it to use the option:

    bundle config build.nokogiri --use-system-libraries
    bundle install

Note, however, that nokogiri is not fully compatible with arbitrary
versions of libxml2 provided by OS/package vendors.
************************************************************************
Extracting libxml2-2.9.7.tar.gz into tmp/x86_64-apple-darwin17.3.0/ports/libxml2/2.9.7... OK
Running 'configure' for libxml2 2.9.7... OK
Running 'compile' for libxml2 2.9.7... OK
Running 'install' for libxml2 2.9.7... OK
Activating libxml2 2.9.7 (from /Users/fx/chat/vender/bundler/ruby/2.5.0/gems/nokogiri-1.8.2/ports/x86_64-apple-darwin17.3.0/libxml2/2.9.7)...
************************************************************************
IMPORTANT NOTICE:

Building Nokogiri with a packaged version of libxslt-1.1.32.

Team Nokogiri will keep on doing their best to provide security
updates in a timely manner, but if this is a concern for you and want
to use the system library instead; abort this installation process and
reinstall nokogiri as follows:

    gem install nokogiri -- --use-system-libraries
        [--with-xml2-config=/path/to/xml2-config]
        [--with-xslt-config=/path/to/xslt-config]

If you are using Bundler, tell it to use the option:

    bundle config build.nokogiri --use-system-libraries
    bundle install
************************************************************************
Extracting libxslt-1.1.32.tar.gz into tmp/x86_64-apple-darwin17.3.0/ports/libxslt/1.1.32... OK
Running 'configure' for libxslt 1.1.32... OK
Running 'compile' for libxslt 1.1.32... OK
Running 'install' for libxslt 1.1.32... OK
Activating libxslt 1.1.32 (from /Users/fx/chat/vender/bundler/ruby/2.5.0/gems/nokogiri-1.8.2/ports/x86_64-apple-darwin17.3.0/libxslt/1.1.32)...
checking for -llzma... yes
checking for xmlParseDoc() in libxml/parser.h... yes
checking for xsltParseStylesheetDoc() in libxslt/xslt.h... yes
checking for exsltFuncRegister() in libexslt/exslt.h... yes
checking for xmlHasFeature()... yes
checking for xmlFirstElementChild()... yes
checking for xmlRelaxNGSetParserStructuredErrors()... yes
checking for xmlRelaxNGSetParserStructuredErrors()... yes
checking for xmlRelaxNGSetValidStructuredErrors()... yes
checking for xmlSchemaSetValidStructuredErrors()... yes
checking for xmlSchemaSetParserStructuredErrors()... yes
creating Makefile

current directory: /Users/fx/chat/vender/bundler/ruby/2.5.0/gems/nokogiri-1.8.2/ext/nokogiri
make "DESTDIR=" clean

current directory: /Users/fx/chat/vender/bundler/ruby/2.5.0/gems/nokogiri-1.8.2/ext/nokogiri
make "DESTDIR="
compiling html_document.c
compiling html_element_description.c
compiling html_entity_lookup.c
compiling html_sax_parser_context.c
compiling html_sax_push_parser.c
compiling nokogiri.c
compiling xml_attr.c
compiling xml_attribute_decl.c
compiling xml_cdata.c
xml_cdata.c:28:56: warning: passing 'const xmlChar *' (aka 'const unsigned char *') to parameter of type 'const char *' converts between pointers to integer types with different sign [-Wpointer-sign]
  content_str_len = (content_str == NULL) ? 0 : strlen(content_str);
                                                       ^~~~~~~~~~~
/Applications/Xcode.app/Contents/Developer/Platforms/MacOSX.platform/Developer/SDKs/MacOSX10.13.sdk/usr/include/string.h:82:28: note: passing argument to parameter '__s' here
size_t   strlen(const char *__s);
                            ^
1 warning generated.
compiling xml_comment.c
compiling xml_document.c
compiling xml_document_fragment.c
compiling xml_dtd.c
compiling xml_element_content.c
compiling xml_element_decl.c
compiling xml_encoding_handler.c
compiling xml_entity_decl.c
compiling xml_entity_reference.c
compiling xml_io.c
compiling xml_libxml2_hacks.c
compiling xml_namespace.c
xml_namespace.c:67:49: warning: incompatible pointer types passing 'struct _xmlNs *' to parameter of type 'xmlNodePtr' (aka 'struct _xmlNode *') [-Wincompatible-pointer-types]
  return (node->next && ! Nokogiri_namespace_eh(node->next));
                                                ^~~~~~~~~~
xml_namespace.c:27:38: note: passing argument to parameter 'node' here
int Nokogiri_namespace_eh(xmlNodePtr node)
                                     ^
1 warning generated.
compiling xml_node.c
xml_node.c:170:15: warning: 14 enumeration values not handled in switch: 'XML_ATTRIBUTE_NODE', 'XML_ENTITY_NODE', 'XML_DOCUMENT_NODE'... [-Wswitch]
      switch (reparentee->type) {
              ^
xml_node.c:170:15: note: add missing switch cases
      switch (reparentee->type) {
              ^
xml_node.c:188:15: warning: 15 enumeration values not handled in switch: 'XML_ATTRIBUTE_NODE', 'XML_ENTITY_NODE', 'XML_DOCUMENT_NODE'... [-Wswitch]
      switch (reparentee->type) {
              ^
xml_node.c:188:15: note: add missing switch cases
      switch (reparentee->type) {
              ^
xml_node.c:199:15: warning: 19 enumeration values not handled in switch: 'XML_ELEMENT_NODE', 'XML_ATTRIBUTE_NODE', 'XML_CDATA_SECTION_NODE'... [-Wswitch]
      switch (reparentee->type) {
              ^
xml_node.c:199:15: note: add missing switch cases
      switch (reparentee->type) {
              ^
xml_node.c:167:13: warning: 14 enumeration values not handled in switch: 'XML_CDATA_SECTION_NODE', 'XML_ENTITY_NODE', 'XML_PI_NODE'... [-Wswitch]
    switch (parent->type) {
            ^
xml_node.c:167:13: note: add missing switch cases
    switch (parent->type) {
            ^
4 warnings generated.
compiling xml_node_set.c
compiling xml_processing_instruction.c
compiling xml_reader.c
compiling xml_relax_ng.c
compiling xml_sax_parser.c
compiling xml_sax_parser_context.c
compiling xml_sax_push_parser.c
compiling xml_schema.c
compiling xml_syntax_error.c
compiling xml_text.c
compiling xml_xpath_context.c
compiling xslt_stylesheet.c
xslt_stylesheet.c:217:21: warning: incompatible pointer to integer conversion passing 'void *' to parameter of type 'VALUE' (aka 'unsigned long') [-Wint-conversion]
    Data_Get_Struct(ctxt->style->_private, nokogiriXsltStylesheetTuple,
                    ^~~~~~~~~~~~~~~~~~~~~
/Users/fx/.rbenv/versions/2.5.0/include/ruby-2.5.0/ruby/ruby.h:1183:41: note: expanded from macro 'Data_Get_Struct'
    ((sval) = (type*)rb_data_object_get(obj))
                                        ^~~
/Users/fx/.rbenv/versions/2.5.0/include/ruby-2.5.0/ruby/ruby.h:1354:26: note: passing argument to parameter 'obj' here
rb_data_object_get(VALUE obj)
                         ^
xslt_stylesheet.c:230:21: warning: incompatible pointer to integer conversion passing 'void *' to parameter of type 'VALUE' (aka 'unsigned long') [-Wint-conversion]
    Data_Get_Struct(ctxt->style->_private, nokogiriXsltStylesheetTuple,
                    ^~~~~~~~~~~~~~~~~~~~~
/Users/fx/.rbenv/versions/2.5.0/include/ruby-2.5.0/ruby/ruby.h:1183:41: note: expanded from macro 'Data_Get_Struct'
    ((sval) = (type*)rb_data_object_get(obj))
                                        ^~~
/Users/fx/.rbenv/versions/2.5.0/include/ruby-2.5.0/ruby/ruby.h:1354:26: note: passing argument to parameter 'obj' here
rb_data_object_get(VALUE obj)
                         ^
2 warnings generated.
linking shared-object nokogiri/nokogiri.bundle
Cleaning files only used during build.
rm -rf /Users/fx/chat/vender/bundler/ruby/2.5.0/gems/nokogiri-1.8.2/ext/nokogiri/tmp/x86_64-apple-darwin17.3.0/ports
rm -rf /Users/fx/chat/vender/bundler/ruby/2.5.0/gems/nokogiri-1.8.2/ports

current directory: /Users/fx/chat/vender/bundler/ruby/2.5.0/gems/nokogiri-1.8.2/ext/nokogiri
make "DESTDIR=" install
/usr/bin/install -c -m 0755 nokogiri.bundle ./.gem.20180509-43570-jxz1ym/nokogiri
