current directory: /Users/fx/chat/vender/bundler/ruby/2.5.0/gems/byebug-10.0.2/ext/byebug
/Users/fx/.rbenv/versions/2.5.0/bin/ruby -r ./siteconf20180509-43570-1ne9v80.rb extconf.rb
creating Makefile

current directory: /Users/fx/chat/vender/bundler/ruby/2.5.0/gems/byebug-10.0.2/ext/byebug
make "DESTDIR=" clean

current directory: /Users/fx/chat/vender/bundler/ruby/2.5.0/gems/byebug-10.0.2/ext/byebug
make "DESTDIR="
compiling breakpoint.c
compiling byebug.c
compiling context.c
compiling locker.c
compiling threads.c
linking shared-object byebug/byebug.bundle

current directory: /Users/fx/chat/vender/bundler/ruby/2.5.0/gems/byebug-10.0.2/ext/byebug
make "DESTDIR=" install
/usr/bin/install -c -m 0755 byebug.bundle ./.gem.20180509-43570-1yl4svt/byebug
